Generate Gene List for FunGen xQTL Analysis — FunGen-xQTL Manuscript Repository
…
  fisher.test(mat)$p.value
}

# Process all GRNs and combine
all_roles <- map_dfr(reg_net_files, process_grn)
all_roles_filtered <- all_roles %>% filter(role != "not_in_network")

count_table <- all_roles_filtered %>%
  count(file, group, role) %>%
  pivot_wider(names_from = role, values_from = n, values_fill = 0)

print(count_table)

# A tibble: 48 x 5
   file               group      intermediary regulator target
   <chr>              <chr>             <int>     <int>  <int>
 1 Ast_GRN.txt        background          257       127   7899
 2 Ast_GRN.txt        xQTL_only             4         1    127
 3 Chandelier_GRN.txt background          230       178   7441
 4 Chandelier_GRN.txt xQTL_only             3         1    128
 5 End_GRN.txt        background          239       114   7367
 6 End_GRN.txt        xQTL_only             4         1    117
 7 Immune_GRN.txt     background          242        98   7979
 8 Immune_GRN.txt     xQTL_only             6         0    152
 9 L2.3.IT_GRN.txt    background          279       107   9862
10 L2.3.IT_GRN.txt    xQTL_only             4         0    146
# i 38 more rows

# Calculate Fisher p-values per file
fisher_results <- all_roles_filtered %>%
  group_by(file) %>%
  group_split() %>%
  map_dbl(~run_fisher_per_file(.x, set_role = 'regulator'))

fisher_summary <- tibble(
  file = unique(all_roles_filtered$file),
  fisher_p_value = fisher_results
)

print(fisher_summary %>% arrange(fisher_p_value))

# A tibble: 24 x 2
   file               fisher_p_value
   <chr>                       <dbl>
 1 Immune_GRN.txt              0.267
 2 Mic_GRN.txt                 0.267
 3 Oli_GRN.txt                 0.267
 4 Sncg_GRN.txt                0.373
 5 Vip_GRN.txt                 0.373
 6 Chandelier_GRN.txt          0.374
 7 Lamp5_GRN.txt               0.375
 8 L6.IT.Car3_GRN.txt          0.408
 9 L5.IT_GRN.txt               0.409
10 L6b_GRN.txt                 0.409
# i 14 more rows

# Calculate Fisher p-values per file
fisher_results <- all_roles_filtered %>%
  group_by(file) %>%
  group_split() %>%
  map_dbl(~run_fisher_per_file(.x, set_role = 'target'))

fisher_summary <- tibble(
  file = unique(all_roles_filtered$file),
  fisher_p_value = fisher_results
)

print(fisher_summary %>% arrange(fisher_p_value))

# A tibble: 24 x 2
   file               fisher_p_value
   <chr>                       <dbl>
 1 Chandelier_GRN.txt          0.325
 2 Pvalb_GRN.txt               0.325
 3 Sst_GRN.txt                 0.421
 4 OPC_GRN.txt                 0.530
 5 Lamp5_GRN.txt               0.558
 6 L5.IT_GRN.txt               0.663
 7 L4.IT_GRN.txt               0.663
 8 L6.CT_GRN.txt               0.664
 9 L5.6.NP_GRN.txt             0.664
10 L6.IT.Car3_GRN.txt          0.664
# i 14 more rows

# Calculate Fisher p-values per file
fisher_results <- all_roles_filtered %>%
  group_by(file) %>%
  group_split() %>%
  map_dbl(~run_fisher_per_file(.x, set_role = 'intermediary'))

fisher_summary <- tibble(
  file = unique(all_roles_filtered$file),
  fisher_p_value = fisher_results
)

print(fisher_summary %>% arrange(fisher_p_value))

# A tibble: 24 x 2
   file            fisher_p_value
   <chr>                    <dbl>
 1 Mic_GRN.txt              0.465
 2 Immune_GRN.txt           0.470
 3 Pvalb_GRN.txt            0.596
 4 Sncg_GRN.txt             0.788
 5 End_GRN.txt              0.792
 6 Vip_GRN.txt              0.792
 7 Pax6_GRN.txt             0.793
 8 L5.6.NP_GRN.txt          0.799
 9 Lamp5_GRN.txt            0.799
10 Sst_GRN.txt              0.800
# i 14 more rows
…
